1 10 20
100 200 125
201 210 89
900 1000 174
241652 950988 525
276089 349253 441
100688 886279 525
476073 505974 426
510429 293735 449
940379 951823 414
438231 290487 449
737310 379507 509
915709 633834 525
406001 809718 509
375324 424723 449
800595 459024 509
294672 530316 470
95254 218982 386
833909 372560 509
8762 931930 525
336351 34595 443
34758 543111 470
78990 178528 383
879244 861462 432
797097 118651 509
528735 615369 452
775916 341331 509
969772 385326 525
939137 271857 525
966027 993302 458
42982 815194 509
954751 498439 525
100119 695150 509
124179 895181 525
5594 291135 443
476341 368210 449
328330 383134 441
6508 656 262
2593 8164 262
478 3135 217
6826 11 262
2686 4557 238
9490 1296 262
5595 1705 238
8572 5107 262
9263 4162 262
8692 9914 260
4430 3842 215
7967 3780 262
6398 9098 257
125 1514 182
5337 5511 192
8428 9684 260
4819 3462 238
1570 7739 262
9090 2244 262
336 2428 183
3676 3724 238
595 296 144
2958 8221 262
2268 8923 262
2285 7651 262
4183 6 238
6183 4175 262
900 8658 262
3964 6926 262
9149 9530 260
169 6478 262
9518 1204 262
5695 3239 238
7108 5550 262
1414 5781 238
1775 1420 180
8806 6052 262
6938 3727 262
6984 4408 262
902 6765 262
8979 5286 262
6283 8889 257
1157 5105 238
4778 1398 238
8026 3621 262
2090 8461 262
7299 5724 262
4723 9377 262
1316 3405 217
2267 332 183
7163 404 262
481840 193275 449
453601 699837 509
67547 44502 340
16414 369398 443
529069 628516 509
240908 620338 470
897730 943510 507
181569 611808 470
31631 944674 525
860339 507689 525
657273 768823 504
652946 109403 509
104462 760509 509
775556 818236 468
693441 582490 509
770309 466507 509
431912 512568 470
856050 499343 525
938486 688899 525
150047 203433 383
336058 957433 525
874254 202222 525
409639 866791 525
229387 221110 368
389472 938613 525
820629 76262 509
486070 141350 449
5077 287023 443
205751 674099 509
95371 873193 525
574858 115236 470
820543 90076 509
153116 12795 375
808404 748411 468
461704 69855 449
53425 680333 509
22190 93371 351
594354 304523 470
329383 481261 449
297160 681051 509
788604 422639 509
417371 683835 509
